3 Transformation und Analyse mit dplyr | Kurzeinführung zu R
…
library(tidyverse)

load("stammdaten_17_19.RData")

Die Datei enthielt das Objekt stammdaten_17_19, eine Tibble, welche die
Stammdaten aller Bundestagsabgeordneten der 17. - 19. Legislaturperiode enthält.
Schauen wir uns die Tibble einmal an:

stammdaten_17_19
## # A tibble: 2,060 × 9
##       wp nachname  vorname   praefix geschlecht alter geb        Titel fraktion 
##    <int> <chr>     <chr>     <chr>   <chr>      <int> <chr>      <chr> <chr>    
##  1    19 Abercron  Michael   von     männlich      64 17.11.1952 Dr.   Union    
##  2    19 Achelwilm Doris     <NA>    weiblich      40 30.11.1976 <NA>  DIE LINK…
##  3    17 Ackermann Jens      <NA>    männlich      34 02.07.1975 <NA>  FDP      
##  4    19 Aggelidis Grigorios <NA>    männlich      52 19.08.1965 <NA>  FDP      
##  5    17 Ahrendt   Christian <NA>    männlich      46 07.05.1963 <NA>  FDP      
##  6    17 Aigner    Ilse      <NA>    weiblich      44 07.12.1964 <NA>  Union    
##  7    19 Akbulut   Gökay     <NA>    weiblich      34 16.11.1982 <NA>  DIE LINK…
##  8    17 Aken      Jan       van     männlich      48 01.05.1961 <NA>  DIE LINK…
##  9    18 Aken      Jan       van     männlich      52 01.05.1961 <NA>  DIE LINK…
## 10    18 Albani    Stephan   <NA>    männlich      45 03.06.1968 <NA>  Union    
## # … with 2,050 more rows
…
Wie Sie sehen, werden bei Tibbles standardmäßig nur die ersten 10 Zeilen
gedruckt. Die Darstellung ist dadurch kompakt und übersichtlich. Eventuell
könnten wir aber daran interessiert sein mehr als 10 Zeilen zu sehen. Ein Weg
ist das Anklicken des Objekts im “Environment” Tab oder das Schreiben von
View(objektname) in der console. Nun öffnet sich das Objekt in einem neuen Tab
und kann komplett betrachtet werden. Ein anderer Weg ist es, R zu zwingen mehr
Zeilen in die console abzudrucken. Dies ist mit der Funktion print() möglich.
Als zweites Argument können wir mit n = angeben, wie viele Zeilen wir sehen
möchten.

print(stammdaten_17_19, n = 20)
## # A tibble: 2,060 × 9
##       wp nachname   vorname       praefix geschlecht alter geb    Titel fraktion
##    <int> <chr>      <chr>         <chr>   <chr>      <int> <chr>  <chr> <chr>   
##  1    19 Abercron   Michael       von     männlich      64 17.11… Dr.   Union   
##  2    19 Achelwilm  Doris         <NA>    weiblich      40 30.11… <NA>  DIE LIN…
##  3    17 Ackermann  Jens          <NA>    männlich      34 02.07… <NA>  FDP     
##  4    19 Aggelidis  Grigorios     <NA>    männlich      52 19.08… <NA>  FDP     
##  5    17 Ahrendt    Christian     <NA>    männlich      46 07.05… <NA>  FDP     
##  6    17 Aigner     Ilse          <NA>    weiblich      44 07.12… <NA>  Union   
##  7    19 Akbulut    Gökay         <NA>    weiblich      34 16.11… <NA>  DIE LIN…
##  8    17 Aken       Jan           van     männlich      48 01.05… <NA>  DIE LIN…
##  9    18 Aken       Jan           van     männlich      52 01.05… <NA>  DIE LIN…
## 10    18 Albani     Stephan       <NA>    männlich      45 03.06… <NA>  Union   
## 11    19 Albani     Stephan       <NA>    männlich      49 03.06… <NA>  Union   
## 12    18 Albsteiger Katrin        <NA>    weiblich      29 20.11… <NA>  Union   
## 13    17 Alpers     Agnes         <NA>    weiblich      48 29.06… <NA>  DIE LIN…
## 14    18 Alpers     Agnes         <NA>    weiblich      52 29.06… <NA>  DIE LIN…
## 15    19 Alt        Renata        <NA>    weiblich      52 27.08… <NA>  FDP     
## 16    19 Altenkamp  Norbert Maria <NA>    männlich      45 27.07… <NA>  Union   
## 17    17 Altmaier   Peter         <NA>    männlich      51 18.06… <NA>  Union   
## 18    18 Altmaier   Peter         <NA>    männlich      55 18.06… <NA>  Union   
## 19    19 Altmaier   Peter         <NA>    männlich      59 18.06… <NA>  Union   
## 20    19 Amthor     Philipp       <NA>    männlich      24 10.11… <NA>  Union   
## # … with 2,040 more rows
…
Zum Schreiben der Ausdrücke benötigen wir die in Kapitel 1.2.4
bereits eingeführten Vergleichsoperatoren. Diese vergleichen den Wert auf der
linken Seite des Operators mit dem auf der rechten und geben als Ergebnis ein
TRUE zurück, wenn der Test bestanden wurde, beziehungsweise FALSE, wenn er
nicht bestanden wurde.

Wir könnten nun beispielsweise daran interessiert sein, nur die Daten bestimmter
Fraktionen zu analysieren. Filtern wir zunächst die Stammdaten der
Unions-Abgeordneten heraus. Wir können dazu in filter() testen, ob der Wert
der Spalte “fraktion” gleich dem Wert “Union” ist. Bitte denken Sie daran, dass
wir zum Vergleich zweier Werte immer == schreiben müssen, nicht =.

stammdaten_17_19 %>% 
  filter(fraktion == "Union")
## # A tibble: 830 × 9
##       wp nachname   vorname       praefix geschlecht alter geb    Titel fraktion
##    <int> <chr>      <chr>         <chr>   <chr>      <int> <chr>  <chr> <chr>   
##  1    19 Abercron   Michael       von     männlich      64 17.11… Dr.   Union   
##  2    17 Aigner     Ilse          <NA>    weiblich      44 07.12… <NA>  Union   
##  3    18 Albani     Stephan       <NA>    männlich      45 03.06… <NA>  Union   
##  4    19 Albani     Stephan       <NA>    männlich      49 03.06… <NA>  Union   
##  5    18 Albsteiger Katrin        <NA>    weiblich      29 20.11… <NA>  Union   
##  6    19 Altenkamp  Norbert Maria <NA>    männlich      45 27.07… <NA>  Union   
##  7    17 Altmaier   Peter         <NA>    männlich      51 18.06… <NA>  Union   
##  8    18 Altmaier   Peter         <NA>    männlich      55 18.06… <NA>  Union   
##  9    19 Altmaier   Peter         <NA>    männlich      59 18.06… <NA>  Union   
## 10    19 Amthor     Philipp       <NA>    männlich      24 10.11… <NA>  Union   
## # … with 820 more rows
…
TRUE & TRUE gibt TRUE zurück

TRUE & FALSE, FALSE & TRUE und FALSE & FALSE geben alle FALSE zurück

TRUE | TRUE, TRUE | FALSE und FALSE | TRUE geben alle TRUE zurück

FALSE | FALSE gibt FALSE zurück

Möchten wir nun beispielsweise alle Unions-Abgeordneten des 19. Bundestags
filtern, können wir dazu den & Operator einsetzen:

stammdaten_17_19 %>% 
  filter(fraktion == "Union" & wp == 19)
## # A tibble: 261 × 9
##       wp nachname    vorname       praefix geschlecht alter geb   Titel fraktion
##    <int> <chr>       <chr>         <chr>   <chr>      <int> <chr> <chr> <chr>   
##  1    19 Abercron    Michael       von     männlich      64 17.1… Dr.   Union   
##  2    19 Albani      Stephan       <NA>    männlich      49 03.0… <NA>  Union   
##  3    19 Altenkamp   Norbert Maria <NA>    männlich      45 27.0… <NA>  Union   
##  4    19 Altmaier    Peter         <NA>    männlich      59 18.0… <NA>  Union   
##  5    19 Amthor      Philipp       <NA>    männlich      24 10.1… <NA>  Union   
##  6    19 Auernhammer Artur         <NA>    männlich      54 09.0… <NA>  Union   
##  7    19 Aumer       Peter         <NA>    männlich      41 17.0… <NA>  Union   
##  8    19 Bär         Dorothee      <NA>    weiblich      39 19.0… <NA>  Union   
##  9    19 Bareiß      Thomas        <NA>    männlich      42 15.0… <NA>  Union   
## 10    19 Barthle     Norbert       <NA>    männlich      65 01.0… <NA>  Union   
## # … with 251 more rows

Möchten wir die MdBs der großen Koalition aus dem Datensatz filtern, also
Abgeordnete der Union oder der SPD, können wir dies mit | realisieren:

stammdaten_17_19 %>% 
  filter(fraktion == "Union" | fraktion == "SPD")
## # A tibble: 1,353 × 9
##       wp nachname   vorname       praefix geschlecht alter geb    Titel fraktion
##    <int> <chr>      <chr>         <chr>   <chr>      <int> <chr>  <chr> <chr>   
##  1    19 Abercron   Michael       von     männlich      64 17.11… Dr.   Union   
##  2    17 Aigner     Ilse          <NA>    weiblich      44 07.12… <NA>  Union   
##  3    18 Albani     Stephan       <NA>    männlich      45 03.06… <NA>  Union   
##  4    19 Albani     Stephan       <NA>    männlich      49 03.06… <NA>  Union   
##  5    18 Albsteiger Katrin        <NA>    weiblich      29 20.11… <NA>  Union   
##  6    19 Altenkamp  Norbert Maria <NA>    männlich      45 27.07… <NA>  Union   
##  7    17 Altmaier   Peter         <NA>    männlich      51 18.06… <NA>  Union   
##  8    18 Altmaier   Peter         <NA>    männlich      55 18.06… <NA>  Union   
##  9    19 Altmaier   Peter         <NA>    männlich      59 18.06… <NA>  Union   
## 10    19 Amthor     Philipp       <NA>    männlich      24 10.11… <NA>  Union   
## # … with 1,343 more rows

Es lassen sich auch mehr als zwei Ausdrücke mit & bzw. | kombinieren.
Beispielsweise um die die Abgeordneten der Oppositionsfraktionen zu filtern:

stammdaten_17_19 %>% 
  filter(fraktion == "AfD" | fraktion == "FDP" | fraktion == "Die Grünen" | fraktion == "DIE LINKE.")
## # A tibble: 705 × 9
##       wp nachname  vorname   praefix geschlecht alter geb        Titel fraktion 
##    <int> <chr>     <chr>     <chr>   <chr>      <int> <chr>      <chr> <chr>    
##  1    19 Achelwilm Doris     <NA>    weiblich      40 30.11.1976 <NA>  DIE LINK…
##  2    17 Ackermann Jens      <NA>    männlich      34 02.07.1975 <NA>  FDP      
##  3    19 Aggelidis Grigorios <NA>    männlich      52 19.08.1965 <NA>  FDP      
##  4    17 Ahrendt   Christian <NA>    männlich      46 07.05.1963 <NA>  FDP      
##  5    19 Akbulut   Gökay     <NA>    weiblich      34 16.11.1982 <NA>  DIE LINK…
##  6    17 Aken      Jan       van     männlich      48 01.05.1961 <NA>  DIE LINK…
##  7    18 Aken      Jan       van     männlich      52 01.05.1961 <NA>  DIE LINK…
##  8    17 Alpers    Agnes     <NA>    weiblich      48 29.06.1961 <NA>  DIE LINK…
##  9    18 Alpers    Agnes     <NA>    weiblich      52 29.06.1961 <NA>  DIE LINK…
## 10    19 Alt       Renata    <NA>    weiblich      52 27.08.1965 <NA>  FDP      
## # … with 695 more rows
…
Ab hier arbeiten wir mit dem Objekt stammdaten_19 weiter.

3.2.2 select()

Möchten wir ein Subset von Variablen bilden, könne wir dazu select() nutzen.
Die Funktion nimmt die Daten, auf die sie angewendet werden soll, als erstes
Argument – hier weitergegeben durch die Pipe – und dann einen oder mehrere
Spaltennamen, die in der Tibble verbleiben sollen. Folgen die zu behaltenden
Spalten aufeinander, können wir auch eine “von:bis” Notation nutzen. Nehmen wir
an, wir möchten die Spalten “nachname”, “vorname”, “praefix” und “fraktion”
extrahieren:

stammdaten_19 %>% 
  select(nachname, vorname, praefix, fraktion)
## # A tibble: 750 × 4
##    nachname  vorname       praefix fraktion  
##    <chr>     <chr>         <chr>   <chr>     
##  1 Abercron  Michael       von     Union     
##  2 Achelwilm Doris         <NA>    DIE LINKE.
##  3 Aggelidis Grigorios     <NA>    FDP       
##  4 Akbulut   Gökay         <NA>    DIE LINKE.
##  5 Albani    Stephan       <NA>    Union     
##  6 Alt       Renata        <NA>    FDP       
##  7 Altenkamp Norbert Maria <NA>    Union     
##  8 Altmaier  Peter         <NA>    Union     
##  9 Amthor    Philipp       <NA>    Union     
## 10 Amtsberg  Luise         <NA>    Die Grünen
## # … with 740 more rows

stammdaten_19 %>% 
  select(nachname:praefix, fraktion)
## # A tibble: 750 × 4
##    nachname  vorname       praefix fraktion  
##    <chr>     <chr>         <chr>   <chr>     
##  1 Abercron  Michael       von     Union     
##  2 Achelwilm Doris         <NA>    DIE LINKE.
##  3 Aggelidis Grigorios     <NA>    FDP       
##  4 Akbulut   Gökay         <NA>    DIE LINKE.
##  5 Albani    Stephan       <NA>    Union     
##  6 Alt       Renata        <NA>    FDP       
##  7 Altenkamp Norbert Maria <NA>    Union     
##  8 Altmaier  Peter         <NA>    Union     
##  9 Amthor    Philipp       <NA>    Union     
## 10 Amtsberg  Luise         <NA>    Die Grünen
## # … with 740 more rows

Wir können select()auch nutzen, um Variablen zu entfernen. Dazu schreiben wir
- vor den zu entfernenden Spaltennamen. Da das genaue Geburtsdatum der
Abgeordneten im Folgenden nicht mehr benötigt wird, können wir die Spalte “geb”
entfernen.

stammdaten_19 <- stammdaten_19 %>% 
  select(-geb)

stammdaten_19
## # A tibble: 750 × 8
##       wp nachname  vorname       praefix geschlecht alter Titel fraktion  
##    <int> <chr>     <chr>         <chr>   <chr>      <int> <chr> <chr>     
##  1    19 Abercron  Michael       von     männlich      64 Dr.   Union     
##  2    19 Achelwilm Doris         <NA>    weiblich      40 <NA>  DIE LINKE.
##  3    19 Aggelidis Grigorios     <NA>    männlich      52 <NA>  FDP       
##  4    19 Akbulut   Gökay         <NA>    weiblich      34 <NA>  DIE LINKE.
##  5    19 Albani    Stephan       <NA>    männlich      49 <NA>  Union     
##  6    19 Alt       Renata        <NA>    weiblich      52 <NA>  FDP       
##  7    19 Altenkamp Norbert Maria <NA>    männlich      45 <NA>  Union     
##  8    19 Altmaier  Peter         <NA>    männlich      59 <NA>  Union     
##  9    19 Amthor    Philipp       <NA>    männlich      24 <NA>  Union     
## 10    19 Amtsberg  Luise         <NA>    weiblich      33 <NA>  Die Grünen
## # … with 740 more rows
3.2.3 rename()

Ihnen wird eventuell bereits aufgefallen sein, dass alle Spaltennamen außer
“Titel” mit einem kleingeschriebenen Buchstaben beginnen. Da habe ich
anscheinend beim Erstellen des Datenobjekts meine eigenen Namenskonventionen
– alles beginnt mit kleinen Buchstaben – außer Acht gelassen. Um diese nun
umzubenennen, können wir rename() nutzen. Erneut werden als erstes Argument
die Daten durch die Pipe weitergegeben, gefolgt von einem oder mehreren
Argumenten in der Form neuer_name = alter_name.

stammdaten_19 <- stammdaten_19 %>% 
  rename(titel = Titel)

stammdaten_19
## # A tibble: 750 × 8
##       wp nachname  vorname       praefix geschlecht alter titel fraktion  
##    <int> <chr>     <chr>         <chr>   <chr>      <int> <chr> <chr>     
##  1    19 Abercron  Michael       von     männlich      64 Dr.   Union     
##  2    19 Achelwilm Doris         <NA>    weiblich      40 <NA>  DIE LINKE.
##  3    19 Aggelidis Grigorios     <NA>    männlich      52 <NA>  FDP       
##  4    19 Akbulut   Gökay         <NA>    weiblich      34 <NA>  DIE LINKE.
##  5    19 Albani    Stephan       <NA>    männlich      49 <NA>  Union     
##  6    19 Alt       Renata        <NA>    weiblich      52 <NA>  FDP       
##  7    19 Altenkamp Norbert Maria <NA>    männlich      45 <NA>  Union     
##  8    19 Altmaier  Peter         <NA>    männlich      59 <NA>  Union     
##  9    19 Amthor    Philipp       <NA>    männlich      24 <NA>  Union     
## 10    19 Amtsberg  Luise         <NA>    weiblich      33 <NA>  Die Grünen
## # … with 740 more rows
…
stammdaten_19 <- stammdaten_19 %>% 
  mutate(titel_dummy = if_else(!is.na(titel), TRUE, FALSE))

stammdaten_19 %>% 
  select(titel, titel_dummy)
## # A tibble: 750 × 2
##    titel titel_dummy
##    <chr> <lgl>      
##  1 Dr.   TRUE       
##  2 <NA>  FALSE      
##  3 <NA>  FALSE      
##  4 <NA>  FALSE      
##  5 <NA>  FALSE      
##  6 <NA>  FALSE      
##  7 <NA>  FALSE      
##  8 <NA>  FALSE      
##  9 <NA>  FALSE      
## 10 <NA>  FALSE      
## # … with 740 more rows
…
stammdaten_19 <- stammdaten_19 %>% 
  mutate(geschlecht = factor(geschlecht))

levels(stammdaten_19$geschlecht)
## [1] "männlich" "weiblich"

Damit sind die Daten zur weiteren Analyse vorbereitet. Die Spalte “titel” ist
allerdings nicht mehr notwendig, da wir die enthaltenen Informationen in die neue
Dummyvariable überführt haben. Wir können diese also mit select() entfernen.

stammdaten_19 <- stammdaten_19 %>% 
  select(-titel)

stammdaten_19
## # A tibble: 750 × 8
##       wp nachname  vorname       praefix geschlecht alter fraktion   titel_dummy
##    <int> <chr>     <chr>         <chr>   <fct>      <int> <fct>      <lgl>      
##  1    19 Abercron  Michael       von     männlich      64 Union      TRUE       
##  2    19 Achelwilm Doris         <NA>    weiblich      40 DIE LINKE. FALSE      
##  3    19 Aggelidis Grigorios     <NA>    männlich      52 FDP        FALSE      
##  4    19 Akbulut   Gökay         <NA>    weiblich      34 DIE LINKE. FALSE      
##  5    19 Albani    Stephan       <NA>    männlich      49 Union      FALSE      
##  6    19 Alt       Renata        <NA>    weiblich      52 FDP        FALSE      
##  7    19 Altenkamp Norbert Maria <NA>    männlich      45 Union      FALSE      
##  8    19 Altmaier  Peter         <NA>    männlich      59 Union      FALSE      
##  9    19 Amthor    Philipp       <NA>    männlich      24 Union      FALSE      
## 10    19 Amtsberg  Luise         <NA>    weiblich      33 Die Grünen FALSE      
## # … with 740 more rows
…
